Thu Sep  6 16:10:28 CEST 2018
Preloading tcmalloc_minimal.so
Py:Athena            INFO including file "AthenaCommon/Preparation.py"
Py:Athena            INFO using release [WorkDir-22.0.1] [x86_64-slc6-gcc62-opt] [atlas-work3e/78123ca2f8a] -- built on [2018-09-06T1402]
Py:Athena            INFO including file "AthenaCommon/Atlas.UnixStandardJob.py"
Py:Athena            INFO executing ROOT6Setup
Py:Athena            INFO including file "AthenaCommon/Execution.py"
Py:Athena            INFO including file "AthenaServices/AthDictLoaderSvc_test.py"
Py:Athena            INFO including file "AthenaCommon/runbatch.py"
Py:ConfigurableDb    INFO Read module info for 5528 configurables from 10 genConfDb files
Py:ConfigurableDb    INFO No duplicates have been found: that's good !
[?1034hApplicationMgr       INFO Updating Gaudi::PluginService::SetDebug(level) to level= 'PluginDebugLevel':0
ApplicationMgr       INFO Updating Gaudi::PluginService::SetDebug(level) to level= 'PluginDebugLevel':0
ApplicationMgr    SUCCESS 
====================================================================================================================================
                                                   Welcome to ApplicationMgr (GaudiCoreSvc v30r3)
                                          running on lxplus051.cern.ch on Thu Sep  6 16:11:57 2018
====================================================================================================================================
ApplicationMgr       INFO Successfully loaded modules : AthenaServices
ApplicationMgr       INFO Application Manager Configured successfully
ApplicationMgr       INFO Updating Gaudi::PluginService::SetDebug(level) to level= 'PluginDebugLevel':0
StatusCodeSvc        INFO initialize
AthDictLoaderSvc     INFO in initialize...
AthDictLoaderSvc     INFO acquired Dso-registry
ClassIDSvc           INFO  getRegistryEntries: read 2918 CLIDRegistry entries for module ALL
CoreDumpSvc          INFO install f-a-t-a-l handler... (flag = -1)
CoreDumpSvc          INFO Handling signals: 11(Segmentation fault) 7(Bus error) 4(Illegal instruction) 8(Floating point exception) 
AthenaEventLoopMgr   INFO Initializing AthenaEventLoopMgr - package version AthenaServices-00-00-00
PyComponentMgr       INFO Initializing PyComponentMgr...
AthDictLoaderTe...   INFO Initializing AthDictLoaderTestAlg...
Py:AthDictLoaderTestAlg    INFO retrieving the dictionary loader svc...
HistogramPersis...WARNING Histograms saving not required.
ApplicationMgr       INFO Application Manager Initialized successfully
ApplicationMgr       INFO Application Manager Started successfully
AthenaEventLoopMgr   INFO   ===>>>  start of run 1    <<<===
AthenaEventLoopMgr   INFO   ===>>>  start processing event #1, run #1 0 events processed so far  <<<===
Py:AthDictLoaderTestAlg    INFO testing loading of dictionaries...
Py:AthDictLoaderTestAlg    INFO ----------------------------------------
Py:AthDictLoaderTestAlg    INFO --> [std::string]
Py:AthDictLoaderTestAlg    INFO <-- [string]
Py:AthDictLoaderTestAlg    INFO ----------------------------------------
Py:AthDictLoaderTestAlg    INFO --> [std::basic_string<char>]
Py:AthDictLoaderTestAlg    INFO <-- [string]
Py:AthDictLoaderTestAlg    INFO ----------------------------------------
Py:AthDictLoaderTestAlg    INFO --> [std::vector<std::string>]
Py:AthDictLoaderTestAlg    INFO <-- [vector<string>]
Py:AthDictLoaderTestAlg    INFO ----------------------------------------
Py:AthDictLoaderTestAlg    INFO --> [std::vector<std::basic_string<char> >]
Py:AthDictLoaderTestAlg    INFO <-- [vector<string>]
Py:AthDictLoaderTestAlg    INFO ----------------------------------------
Py:AthDictLoaderTestAlg    INFO --> [std::vector<double>]
Py:AthDictLoaderTestAlg    INFO <-- [vector<double>]
Py:AthDictLoaderTestAlg    INFO ----------------------------------------
Py:AthDictLoaderTestAlg    INFO --> [std::vector<std::string,std::allocator<std::string> >]
Py:AthDictLoaderTestAlg    INFO <-- [vector<string>]
Py:AthDictLoaderTestAlg    INFO ----------------------------------------
Py:AthDictLoaderTestAlg    INFO --> [std::map<int,int>]
Py:AthDictLoaderTestAlg    INFO <-- [map<int,int>]
Py:AthDictLoaderTestAlg    INFO ----------------------------------------
Py:AthDictLoaderTestAlg    INFO --> [std::map<std::string,std::string>]
Py:AthDictLoaderTestAlg    INFO <-- [map<string,string>]
Py:AthDictLoaderTestAlg    INFO ----------------------------------------
Py:AthDictLoaderTestAlg    INFO --> [std::map<std::string, std::string>]
Py:AthDictLoaderTestAlg    INFO <-- [map<string,string>]
Py:AthDictLoaderTestAlg    INFO ----------------------------------------
Py:AthDictLoaderTestAlg    INFO --> [std::map<std::basic_string<char>,std::basic_string<char> >]
Py:AthDictLoaderTestAlg    INFO <-- [map<string,string>]
Py:AthDictLoaderTestAlg    INFO ----------------------------------------
Py:AthDictLoaderTestAlg    INFO --> [std::pair<int,int>]
Py:AthDictLoaderTestAlg    INFO <-- [pair<int,int>]
Py:AthDictLoaderTestAlg    INFO ----------------------------------------
Py:AthDictLoaderTestAlg    INFO --> [std::pair<std::string,std::string>]
Py:AthDictLoaderTestAlg    INFO <-- [pair<string,string>]
Py:AthDictLoaderTestAlg    INFO ----------------------------------------
Py:AthDictLoaderTestAlg    INFO --> [std::pair<std::string, std::string>]
Py:AthDictLoaderTestAlg    INFO <-- [pair<string,string>]
Py:AthDictLoaderTestAlg    INFO ----------------------------------------
Py:AthDictLoaderTestAlg    INFO --> [std::pair<std::basic_string<char>,std::basic_string<char> >]
Py:AthDictLoaderTestAlg    INFO <-- [pair<string,string>]
Py:AthDictLoaderTestAlg    INFO ----------------------------------------
Py:AthDictLoaderTestAlg    INFO --> [std::pair<std::basic_string<char>, std::basic_string<char> >]
Py:AthDictLoaderTestAlg    INFO <-- [pair<string,string>]
Py:AthDictLoaderTestAlg    INFO ----------------------------------------
Py:AthDictLoaderTestAlg    INFO --> [std::set<std::string>]
Py:AthDictLoaderTestAlg    INFO <-- [set<string>]
Py:AthDictLoaderTestAlg    INFO ----------------------------------------
Py:AthDictLoaderTestAlg    INFO --> [std::set<std::basic_string<char> >]
Py:AthDictLoaderTestAlg    INFO <-- [set<string>]
Py:AthDictLoaderTestAlg    INFO ----------------------------------------
Py:AthDictLoaderTestAlg    INFO --> [std::set<unsigned int>]
Py:AthDictLoaderTestAlg    INFO <-- [set<unsigned int>]
Py:AthDictLoaderTestAlg    INFO ----------------------------------------
Py:AthDictLoaderTestAlg    INFO --> [ElementLinkInt_p1]
Py:AthDictLoaderTestAlg    INFO <-- [ElementLink_p1<unsigned int>]
Py:AthDictLoaderTestAlg    INFO ----------------------------------------
Py:AthDictLoaderTestAlg    INFO --> [ElementLink_p1<unsigned int>]
Py:AthDictLoaderTestAlg    INFO <-- [ElementLink_p1<unsigned int>]
Py:AthDictLoaderTestAlg    INFO test of dictionary loading SUCCEEDED
AthenaEventLoopMgr   INFO   ===>>>  done processing event #1, run #1 1 events processed so far  <<<===
ApplicationMgr       INFO Application Manager Stopped successfully
IncidentProcAlg1     INFO Finalize
AthDictLoaderTe...   INFO Finalizing AthDictLoaderTestAlg...
IncidentProcAlg2     INFO Finalize
PyComponentMgr       INFO Finalizing PyComponentMgr...
AthDictLoaderSvc     INFO in finalize...
ToolSvc              INFO Removing all tools created by ToolSvc
*****Chrono*****     INFO ****************************************************************************************************
*****Chrono*****     INFO  The Final CPU consumption ( Chrono ) Table (ordered)
*****Chrono*****     INFO ****************************************************************************************************
ChronoStatSvc        INFO Time User   : Tot= 2.56  [s]                                             #=  1
*****Chrono*****     INFO ****************************************************************************************************
ChronoStatSvc.f...   INFO  Service finalized successfully 
ApplicationMgr       INFO Application Manager Finalized successfully
ApplicationMgr       INFO Application Manager Terminated successfully
Py:Athena            INFO leaving with code 0: "successful run"
